…
sex: Female - Male

degree: highest education level attained

# Combining the hours and minutes variables 

gss_hrmin <- gss %>%
  mutate(emailhr = as.numeric(emailhr)) %>%
mutate(emailmin = as.numeric(emailmin)) %>%
  mutate_all(funs(replace(.,is.na(.),0))) %>%
   mutate(emailhrmin = (emailhr + (emailmin / 60)))
gss_hrmin

## # A tibble: 2,867 × 8
##    emailmin emailhr snapchat instagrm twitter sex    degree         emailhrmin
##       <dbl>   <dbl> <chr>    <chr>    <chr>   <chr>  <chr>               <dbl>
##  1        0      12 NA       NA       NA      Male   Bachelor           12    
##  2       30       0 No       No       No      Male   High school         0.5  
##  3        0       0 No       No       No      Male   Bachelor            0    
##  4       10       0 NA       NA       NA      Female High school         0.167
##  5        0       0 Yes      Yes      No      Female Graduate            0    
##  6        0       2 No       Yes      No      Female Junior college      2    
##  7        0      40 NA       NA       NA      Male   High school        40    
##  8        0       0 Yes      Yes      No      Female High school         0    
##  9        0       0 NA       NA       NA      Male   High school         0    
## 10        0       0 No       No       No      Male   Junior college      0    
## # … with 2,857 more rows
…
formula_emails_ci

## # A tibble: 1 × 6
##   mean.hrmin sd.hrmin n.hrmin se.hrmin lower.ci.hrmin upper.ci.hrmin
##        <dbl>    <dbl>   <int>    <dbl>          <dbl>          <dbl>
## 1       4.00     9.26    2867    0.173           3.66           4.33

gss_socialmedia3 <- gss %>%
mutate(snapchat = as.numeric(snapchat)) %>%
mutate(instagrm = as.numeric(instagrm)) %>%
mutate(twitter=as.numeric(twitter))
gss_socialmedia3

## # A tibble: 2,867 × 7
##    emailmin emailhr snapchat instagrm twitter sex    degree        
##    <chr>    <chr>      <dbl>    <dbl>   <dbl> <chr>  <chr>         
##  1 0        12            NA       NA      NA Male   Bachelor      
##  2 30       0             NA       NA      NA Male   High school   
##  3 NA       NA            NA       NA      NA Male   Bachelor      
##  4 10       0             NA       NA      NA Female High school   
##  5 NA       NA            NA       NA      NA Female Graduate      
##  6 0        2             NA       NA      NA Female Junior college
##  7 0        40            NA       NA      NA Male   High school   
##  8 NA       NA            NA       NA      NA Female High school   
##  9 0        0             NA       NA      NA Male   High school   
## 10 NA       NA            NA       NA      NA Male   Junior college
## # … with 2,857 more rows
…
